-- Merging decision tree log ---
manifest
ADDED from /Users/shadhin/.pub-cache/git/flutter_stetho-9d3268e75937eeea2cfed8d0dbab387532067082/android/src/main/AndroidManifest.xml:1:1-3:12
INJECTED from /Users/shadhin/.pub-cache/git/flutter_stetho-9d3268e75937eeea2cfed8d0dbab387532067082/android/src/main/AndroidManifest.xml:1:1-3:12
INJECTED from /Users/shadhin/.pub-cache/git/flutter_stetho-9d3268e75937eeea2cfed8d0dbab387532067082/android/src/main/AndroidManifest.xml:1:1-3:12
	package
		ADDED from /Users/shadhin/.pub-cache/git/flutter_stetho-9d3268e75937eeea2cfed8d0dbab387532067082/android/src/main/AndroidManifest.xml:2:3-40
		INJECTED from /Users/shadhin/.pub-cache/git/flutter_stetho-9d3268e75937eeea2cfed8d0dbab387532067082/android/src/main/AndroidManifest.xml
		INJECTED from /Users/shadhin/.pub-cache/git/flutter_stetho-9d3268e75937eeea2cfed8d0dbab387532067082/android/src/main/AndroidManifest.xml
	xmlns:android
		ADDED from /Users/shadhin/.pub-cache/git/flutter_stetho-9d3268e75937eeea2cfed8d0dbab387532067082/android/src/main/AndroidManifest.xml:1:11-69
uses-sdk
INJECTED from /Users/shadhin/.pub-cache/git/flutter_stetho-9d3268e75937eeea2cfed8d0dbab387532067082/android/src/main/AndroidManifest.xml reason: use-sdk injection requested
INJECTED from /Users/shadhin/.pub-cache/git/flutter_stetho-9d3268e75937eeea2cfed8d0dbab387532067082/android/src/main/AndroidManifest.xml
INJECTED from /Users/shadhin/.pub-cache/git/flutter_stetho-9d3268e75937eeea2cfed8d0dbab387532067082/android/src/main/AndroidManifest.xml
	android:minSdkVersion
		INJECTED from /Users/shadhin/.pub-cache/git/flutter_stetho-9d3268e75937eeea2cfed8d0dbab387532067082/android/src/main/AndroidManifest.xml
		ADDED from /Users/shadhin/.pub-cache/git/flutter_stetho-9d3268e75937eeea2cfed8d0dbab387532067082/android/src/main/AndroidManifest.xml
		INJECTED from /Users/shadhin/.pub-cache/git/flutter_stetho-9d3268e75937eeea2cfed8d0dbab387532067082/android/src/main/AndroidManifest.xml
